result/des_1way_8KB.log:1475:Total runtime decision procedure (seconds): 2.982
result/des_1way_8KB.log:1487:Total runtime decision procedure (seconds): 4.304
result/des_1way_8KB.log:1499:Total runtime decision procedure (seconds): 5.546
result/des_1way_8KB.log:1511:Total runtime decision procedure (seconds): 6.816
result/des_1way_8KB.log:1523:Total runtime decision procedure (seconds): 8.043
result/des_1way_8KB.log:1535:Total runtime decision procedure (seconds): 9.301
result/des_1way_8KB.log:1547:Total runtime decision procedure (seconds): 10.525
result/des_1way_8KB.log:1559:Total runtime decision procedure (seconds): 11.768
result/des_1way_8KB.log:1571:Total runtime decision procedure (seconds): 13.027
result/des_1way_8KB.log:1583:Total runtime decision procedure (seconds): 14.264
result/des_1way_8KB.log:1595:Total runtime decision procedure (seconds): 15.497
result/des_1way_8KB.log:1607:Total runtime decision procedure (seconds): 16.674
result/des_1way_8KB.log:1619:Total runtime decision procedure (seconds): 17.895
result/des_1way_8KB.log:1631:Total runtime decision procedure (seconds): 19.157
result/des_1way_8KB.log:1643:Total runtime decision procedure (seconds): 20.425
result/des_1way_8KB.log:1655:Total runtime decision procedure (seconds): 21.661
result/des_1way_8KB.log:1667:Total runtime decision procedure (seconds): 22.865
result/des_1way_8KB.log:1679:Total runtime decision procedure (seconds): 24.068
result/des_1way_8KB.log:1691:Total runtime decision procedure (seconds): 25.249
result/des_1way_8KB.log:1703:Total runtime decision procedure (seconds): 26.469
result/des_1way_8KB.log:1715:Total runtime decision procedure (seconds): 27.684
result/des_1way_8KB.log:1727:Total runtime decision procedure (seconds): 28.901
result/des_1way_8KB.log:1739:Total runtime decision procedure (seconds): 30.211
result/des_1way_8KB.log:1751:Total runtime decision procedure (seconds): 31.563
result/des_1way_8KB.log:1763:Total runtime decision procedure (seconds): 32.831
result/des_1way_8KB.log:1775:Total runtime decision procedure (seconds): 34.025
result/des_1way_8KB.log:1787:Total runtime decision procedure (seconds): 35.226
result/des_1way_8KB.log:1799:Total runtime decision procedure (seconds): 36.373
result/des_1way_8KB.log:1811:Total runtime decision procedure (seconds): 37.562
result/des_1way_8KB.log:1823:Total runtime decision procedure (seconds): 38.746
result/des_1way_8KB.log:1835:Total runtime decision procedure (seconds): 39.92
result/des_1way_8KB.log:1847:Total runtime decision procedure (seconds): 41.116
result/des_1way_8KB.log:1859:Total runtime decision procedure (seconds): 42.261
result/des_1way_8KB.log:1871:Total runtime decision procedure (seconds): 43.427
result/des_1way_8KB.log:1883:Total runtime decision procedure (seconds): 44.579
result/des_1way_8KB.log:1895:Total runtime decision procedure (seconds): 45.754
result/des_1way_8KB.log:1907:Total runtime decision procedure (seconds): 46.895
result/des_1way_8KB.log:1919:Total runtime decision procedure (seconds): 48.026
result/des_1way_8KB.log:1931:Total runtime decision procedure (seconds): 49.177
result/des_1way_8KB.log:1943:Total runtime decision procedure (seconds): 50.345
result/des_1way_8KB.log:1955:Total runtime decision procedure (seconds): 51.505
result/des_1way_8KB.log:1967:Total runtime decision procedure (seconds): 52.662
result/des_1way_8KB.log:1979:Total runtime decision procedure (seconds): 53.802
result/des_1way_8KB.log:1991:Total runtime decision procedure (seconds): 54.974
result/des_1way_8KB.log:2003:Total runtime decision procedure (seconds): 56.111
result/des_1way_8KB.log:2015:Total runtime decision procedure (seconds): 57.242
result/des_1way_8KB.log:2027:Total runtime decision procedure (seconds): 58.365
result/des_1way_8KB.log:2039:Total runtime decision procedure (seconds): 59.507
result/des_1way_8KB.log:2051:Total runtime decision procedure (seconds): 60.654
result/des_1way_8KB.log:2063:Total runtime decision procedure (seconds): 61.86
result/des_1way_8KB.log:2075:Total runtime decision procedure (seconds): 63.141
result/des_1way_8KB.log:2087:Total runtime decision procedure (seconds): 64.422
result/des_1way_8KB.log:2099:Total runtime decision procedure (seconds): 65.702
result/des_1way_8KB.log:2111:Total runtime decision procedure (seconds): 66.979
result/des_1way_8KB.log:2123:Total runtime decision procedure (seconds): 68.232
result/des_1way_8KB.log:2135:Total runtime decision procedure (seconds): 69.368
result/des_1way_8KB.log:2147:Total runtime decision procedure (seconds): 70.492
result/des_1way_8KB.log:2159:Total runtime decision procedure (seconds): 71.618
result/des_1way_8KB.log:2171:Total runtime decision procedure (seconds): 72.791
result/des_1way_8KB.log:2183:Total runtime decision procedure (seconds): 74.016
result/des_1way_8KB.log:2195:Total runtime decision procedure (seconds): 75.25
result/des_1way_8KB.log:2207:Total runtime decision procedure (seconds): 76.538
result/des_1way_8KB.log:2219:Total runtime decision procedure (seconds): 77.78
result/des_1way_8KB.log:2231:Total runtime decision procedure (seconds): 79.041
result/des_1way_8KB.log:2243:Total runtime decision procedure (seconds): 80.316
result/des_1way_8KB.log:2255:Total runtime decision procedure (seconds): 81.558
result/des_1way_8KB.log:2267:Total runtime decision procedure (seconds): 82.833
result/des_1way_8KB.log:2279:Total runtime decision procedure (seconds): 84.127
result/des_1way_8KB.log:2291:Total runtime decision procedure (seconds): 85.377
result/des_1way_8KB.log:2303:Total runtime decision procedure (seconds): 86.66
result/des_1way_8KB.log:2315:Total runtime decision procedure (seconds): 87.932
result/des_1way_8KB.log:2327:Total runtime decision procedure (seconds): 89.182
result/des_1way_8KB.log:2339:Total runtime decision procedure (seconds): 90.467
result/des_1way_8KB.log:2351:Total runtime decision procedure (seconds): 91.78
result/des_1way_8KB.log:2363:Total runtime decision procedure (seconds): 93.054
result/des_1way_8KB.log:2375:Total runtime decision procedure (seconds): 94.322
result/des_1way_8KB.log:2387:Total runtime decision procedure (seconds): 95.585
result/des_1way_8KB.log:2399:Total runtime decision procedure (seconds): 96.876
result/des_1way_8KB.log:2411:Total runtime decision procedure (seconds): 98.173
result/des_1way_8KB.log:2423:Total runtime decision procedure (seconds): 99.443
result/des_1way_8KB.log:2435:Total runtime decision procedure (seconds): 100.726
result/des_1way_8KB.log:2447:Total runtime decision procedure (seconds): 102.006
result/des_1way_8KB.log:2459:Total runtime decision procedure (seconds): 103.285
result/des_1way_8KB.log:2471:Total runtime decision procedure (seconds): 104.582
result/des_1way_8KB.log:2483:Total runtime decision procedure (seconds): 105.837
result/des_1way_8KB.log:2495:Total runtime decision procedure (seconds): 107.092
result/des_1way_8KB.log:2507:Total runtime decision procedure (seconds): 108.403
result/des_1way_8KB.log:2519:Total runtime decision procedure (seconds): 109.722
result/des_1way_8KB.log:2531:Total runtime decision procedure (seconds): 110.989
result/des_1way_8KB.log:2543:Total runtime decision procedure (seconds): 112.289
result/des_1way_8KB.log:2555:Total runtime decision procedure (seconds): 113.59
result/des_1way_8KB.log:2567:Total runtime decision procedure (seconds): 114.874
result/des_1way_8KB.log:2579:Total runtime decision procedure (seconds): 116.128
result/des_1way_8KB.log:2591:Total runtime decision procedure (seconds): 117.421
result/des_1way_8KB.log:2603:Total runtime decision procedure (seconds): 118.754
result/des_1way_8KB.log:2615:Total runtime decision procedure (seconds): 120.063
result/des_1way_8KB.log:2627:Total runtime decision procedure (seconds): 121.364
result/des_1way_8KB.log:2639:Total runtime decision procedure (seconds): 122.711
result/des_1way_8KB.log:2651:Total runtime decision procedure (seconds): 124.045
result/des_1way_8KB.log:2663:Total runtime decision procedure (seconds): 125.364
result/des_1way_8KB.log:2675:Total runtime decision procedure (seconds): 126.657
result/des_1way_8KB.log:2687:Total runtime decision procedure (seconds): 128.011
result/des_1way_8KB.log:2699:Total runtime decision procedure (seconds): 129.316
result/des_1way_8KB.log:2711:Total runtime decision procedure (seconds): 130.634
result/des_1way_8KB.log:2723:Total runtime decision procedure (seconds): 131.986
result/des_1way_8KB.log:2735:Total runtime decision procedure (seconds): 133.294
result/des_1way_8KB.log:2747:Total runtime decision procedure (seconds): 134.617
result/des_1way_8KB.log:2759:Total runtime decision procedure (seconds): 135.943
result/des_1way_8KB.log:2771:Total runtime decision procedure (seconds): 137.252
result/des_1way_8KB.log:2783:Total runtime decision procedure (seconds): 138.581
result/des_1way_8KB.log:2795:Total runtime decision procedure (seconds): 139.916
result/des_1way_8KB.log:2807:Total runtime decision procedure (seconds): 141.252
result/des_1way_8KB.log:2819:Total runtime decision procedure (seconds): 142.574
result/des_1way_8KB.log:2831:Total runtime decision procedure (seconds): 143.893
result/des_1way_8KB.log:2843:Total runtime decision procedure (seconds): 145.19
result/des_1way_8KB.log:2855:Total runtime decision procedure (seconds): 146.521
result/des_1way_8KB.log:2867:Total runtime decision procedure (seconds): 147.786
result/des_1way_8KB.log:2879:Total runtime decision procedure (seconds): 149.051
result/des_1way_8KB.log:2891:Total runtime decision procedure (seconds): 150.368
result/des_1way_8KB.log:2903:Total runtime decision procedure (seconds): 151.688
result/des_1way_8KB.log:2915:Total runtime decision procedure (seconds): 153.002
result/des_1way_8KB.log:2927:Total runtime decision procedure (seconds): 154.275
result/des_1way_8KB.log:2939:Total runtime decision procedure (seconds): 155.578
result/des_1way_8KB.log:2951:Total runtime decision procedure (seconds): 156.899
result/des_1way_8KB.log:2963:Total runtime decision procedure (seconds): 158.193
result/des_1way_8KB.log:2975:Total runtime decision procedure (seconds): 159.53
result/des_1way_8KB.log:2987:Total runtime decision procedure (seconds): 160.849
result/des_1way_8KB.log:2999:Total runtime decision procedure (seconds): 162.185
result/des_1way_8KB.log:3011:Total runtime decision procedure (seconds): 163.488
result/des_1way_8KB.log:3023:Total runtime decision procedure (seconds): 164.823
result/des_1way_8KB.log:3035:Total runtime decision procedure (seconds): 166.169
result/des_1way_8KB.log:3047:Total runtime decision procedure (seconds): 167.48
result/des_1way_8KB.log:3059:Total runtime decision procedure (seconds): 168.775
result/des_1way_8KB.log:3071:Total runtime decision procedure (seconds): 170.101
result/des_1way_8KB.log:3083:Total runtime decision procedure (seconds): 171.424
result/des_1way_8KB.log:3095:Total runtime decision procedure (seconds): 172.793
result/des_1way_8KB.log:3107:Total runtime decision procedure (seconds): 174.115
result/des_1way_8KB.log:3119:Total runtime decision procedure (seconds): 175.44
result/des_1way_8KB.log:3131:Total runtime decision procedure (seconds): 176.81
result/des_1way_8KB.log:3143:Total runtime decision procedure (seconds): 178.13
result/des_1way_8KB.log:3155:Total runtime decision procedure (seconds): 179.509
result/des_1way_8KB.log:3167:Total runtime decision procedure (seconds): 180.86
result/des_1way_8KB.log:3179:Total runtime decision procedure (seconds): 182.204
result/des_1way_8KB.log:3191:Total runtime decision procedure (seconds): 183.611
result/des_1way_8KB.log:3203:Total runtime decision procedure (seconds): 185.008
result/des_1way_8KB.log:3215:Total runtime decision procedure (seconds): 186.343
result/des_1way_8KB.log:3227:Total runtime decision procedure (seconds): 187.722
result/des_1way_8KB.log:3239:Total runtime decision procedure (seconds): 189.089
result/des_1way_8KB.log:3251:Total runtime decision procedure (seconds): 190.474
result/des_1way_8KB.log:3263:Total runtime decision procedure (seconds): 191.873
result/des_1way_8KB.log:3275:Total runtime decision procedure (seconds): 193.241
result/des_1way_8KB.log:3287:Total runtime decision procedure (seconds): 194.624
result/des_1way_8KB.log:3299:Total runtime decision procedure (seconds): 196.008
result/des_1way_8KB.log:3311:Total runtime decision procedure (seconds): 197.371
result/des_1way_8KB.log:3323:Total runtime decision procedure (seconds): 198.722
result/des_1way_8KB.log:3335:Total runtime decision procedure (seconds): 200.101
result/des_1way_8KB.log:3347:Total runtime decision procedure (seconds): 201.474
result/des_1way_8KB.log:3359:Total runtime decision procedure (seconds): 202.873
result/des_1way_8KB.log:3371:Total runtime decision procedure (seconds): 204.254
result/des_1way_8KB.log:3383:Total runtime decision procedure (seconds): 205.639
result/des_1way_8KB.log:3395:Total runtime decision procedure (seconds): 207.002
result/des_1way_8KB.log:3407:Total runtime decision procedure (seconds): 208.345
result/des_1way_8KB.log:3419:Total runtime decision procedure (seconds): 209.73
result/des_1way_8KB.log:3431:Total runtime decision procedure (seconds): 211.104
result/des_1way_8KB.log:3443:Total runtime decision procedure (seconds): 212.479
result/des_1way_8KB.log:3455:Total runtime decision procedure (seconds): 213.818
result/des_1way_8KB.log:3467:Total runtime decision procedure (seconds): 215.187
result/des_1way_8KB.log:3479:Total runtime decision procedure (seconds): 216.556
result/des_1way_8KB.log:3491:Total runtime decision procedure (seconds): 217.937
result/des_1way_8KB.log:3503:Total runtime decision procedure (seconds): 219.313
result/des_1way_8KB.log:3515:Total runtime decision procedure (seconds): 220.659
result/des_1way_8KB.log:3527:Total runtime decision procedure (seconds): 222.014
result/des_1way_8KB.log:3539:Total runtime decision procedure (seconds): 223.377
result/des_1way_8KB.log:3551:Total runtime decision procedure (seconds): 224.733
result/des_1way_8KB.log:3563:Total runtime decision procedure (seconds): 226.076
result/des_1way_8KB.log:3575:Total runtime decision procedure (seconds): 227.435
result/des_1way_8KB.log:3587:Total runtime decision procedure (seconds): 228.83
result/des_1way_8KB.log:3599:Total runtime decision procedure (seconds): 230.208
result/des_1way_8KB.log:3611:Total runtime decision procedure (seconds): 231.591
result/des_1way_8KB.log:3623:Total runtime decision procedure (seconds): 232.988
result/des_1way_8KB.log:3635:Total runtime decision procedure (seconds): 234.377
result/des_1way_8KB.log:3647:Total runtime decision procedure (seconds): 235.772
result/des_1way_8KB.log:3659:Total runtime decision procedure (seconds): 237.175
result/des_1way_8KB.log:3671:Total runtime decision procedure (seconds): 238.548
result/des_1way_8KB.log:3683:Total runtime decision procedure (seconds): 239.935
result/des_1way_8KB.log:3695:Total runtime decision procedure (seconds): 241.321
result/des_1way_8KB.log:3707:Total runtime decision procedure (seconds): 242.722
result/des_1way_8KB.log:3719:Total runtime decision procedure (seconds): 244.105
result/des_1way_8KB.log:3731:Total runtime decision procedure (seconds): 245.476
result/des_1way_8KB.log:3743:Total runtime decision procedure (seconds): 246.861
result/des_1way_8KB.log:3755:Total runtime decision procedure (seconds): 248.298
result/des_1way_8KB.log:3767:Total runtime decision procedure (seconds): 249.686
result/des_1way_8KB.log:3779:Total runtime decision procedure (seconds): 251.077
result/des_1way_8KB.log:3791:Total runtime decision procedure (seconds): 252.522
result/des_1way_8KB.log:3803:Total runtime decision procedure (seconds): 253.944
result/des_1way_8KB.log:3815:Total runtime decision procedure (seconds): 255.382
result/des_1way_8KB.log:3827:Total runtime decision procedure (seconds): 256.78
result/des_1way_8KB.log:3839:Total runtime decision procedure (seconds): 258.217
result/des_1way_8KB.log:3851:Total runtime decision procedure (seconds): 259.554
result/des_1way_8KB.log:3863:Total runtime decision procedure (seconds): 260.834
result/des_1way_8KB.log:3875:Total runtime decision procedure (seconds): 262.088
result/des_1way_8KB.log:3887:Total runtime decision procedure (seconds): 263.355
result/des_1way_8KB.log:3899:Total runtime decision procedure (seconds): 264.642
result/des_1way_8KB.log:3911:Total runtime decision procedure (seconds): 265.917
result/des_1way_8KB.log:3923:Total runtime decision procedure (seconds): 267.332
result/des_1way_8KB.log:3935:Total runtime decision procedure (seconds): 268.759
result/des_1way_8KB.log:3947:Total runtime decision procedure (seconds): 270.16
result/des_1way_8KB.log:3959:Total runtime decision procedure (seconds): 271.589
result/des_1way_8KB.log:3971:Total runtime decision procedure (seconds): 273.035
result/des_1way_8KB.log:3983:Total runtime decision procedure (seconds): 274.409
result/des_1way_8KB.log:3995:Total runtime decision procedure (seconds): 275.682
result/des_1way_8KB.log:4007:Total runtime decision procedure (seconds): 276.974
result/des_1way_8KB.log:4019:Total runtime decision procedure (seconds): 278.279
result/des_1way_8KB.log:4031:Total runtime decision procedure (seconds): 279.586
result/des_1way_8KB.log:4043:Total runtime decision procedure (seconds): 280.895
result/des_1way_8KB.log:4055:Total runtime decision procedure (seconds): 282.202
result/des_1way_8KB.log:4067:Total runtime decision procedure (seconds): 283.479
result/des_1way_8KB.log:4079:Total runtime decision procedure (seconds): 284.757
result/des_1way_8KB.log:4091:Total runtime decision procedure (seconds): 286.043
result/des_1way_8KB.log:4103:Total runtime decision procedure (seconds): 287.335
result/des_1way_8KB.log:4115:Total runtime decision procedure (seconds): 288.643
result/des_1way_8KB.log:4127:Total runtime decision procedure (seconds): 289.952
result/des_1way_8KB.log:4139:Total runtime decision procedure (seconds): 291.268
result/des_1way_8KB.log:4151:Total runtime decision procedure (seconds): 292.567
result/des_1way_8KB.log:4163:Total runtime decision procedure (seconds): 293.865
result/des_1way_8KB.log:4175:Total runtime decision procedure (seconds): 295.165
result/des_1way_8KB.log:4187:Total runtime decision procedure (seconds): 296.458
result/des_1way_8KB.log:4199:Total runtime decision procedure (seconds): 297.745
result/des_1way_8KB.log:4211:Total runtime decision procedure (seconds): 299.046
result/des_1way_8KB.log:4223:Total runtime decision procedure (seconds): 300.362
result/des_1way_8KB.log:4235:Total runtime decision procedure (seconds): 301.684
result/des_1way_8KB.log:4247:Total runtime decision procedure (seconds): 302.978
result/des_1way_8KB.log:4259:Total runtime decision procedure (seconds): 304.302
result/des_1way_8KB.log:4271:Total runtime decision procedure (seconds): 305.635
result/des_1way_8KB.log:4283:Total runtime decision procedure (seconds): 306.946
result/des_1way_8KB.log:4295:Total runtime decision procedure (seconds): 308.276
result/des_1way_8KB.log:4307:Total runtime decision procedure (seconds): 309.606
result/des_1way_8KB.log:4319:Total runtime decision procedure (seconds): 310.949
result/des_1way_8KB.log:4331:Total runtime decision procedure (seconds): 312.304
result/des_1way_8KB.log:4343:Total runtime decision procedure (seconds): 313.637
result/des_1way_8KB.log:4355:Total runtime decision procedure (seconds): 314.97
result/des_1way_8KB.log:4367:Total runtime decision procedure (seconds): 316.297
result/des_1way_8KB.log:4379:Total runtime decision procedure (seconds): 317.635
result/des_1way_8KB.log:4391:Total runtime decision procedure (seconds): 318.966
result/des_1way_8KB.log:4403:Total runtime decision procedure (seconds): 320.297
result/des_1way_8KB.log:4415:Total runtime decision procedure (seconds): 321.632
result/des_1way_8KB.log:4427:Total runtime decision procedure (seconds): 322.97
result/des_1way_8KB.log:4439:Total runtime decision procedure (seconds): 324.314
result/des_1way_8KB.log:4451:Total runtime decision procedure (seconds): 325.662
result/des_1way_8KB.log:4463:Total runtime decision procedure (seconds): 326.99
result/des_1way_8KB.log:4475:Total runtime decision procedure (seconds): 328.338
result/des_1way_8KB.log:4487:Total runtime decision procedure (seconds): 329.702
result/des_1way_8KB.log:4499:Total runtime decision procedure (seconds): 331.067
result/des_1way_8KB.log:4511:Total runtime decision procedure (seconds): 332.446
result/des_1way_8KB.log:4523:Total runtime decision procedure (seconds): 333.816
result/des_1way_8KB.log:4535:Total runtime decision procedure (seconds): 335.222
result/des_1way_8KB.log:4547:Total runtime decision procedure (seconds): 336.545
result/des_1way_8KB.log:4559:Total runtime decision procedure (seconds): 337.9
result/des_1way_8KB.log:4571:Total runtime decision procedure (seconds): 339.28
result/des_1way_8KB.log:4583:Total runtime decision procedure (seconds): 340.646
result/des_1way_8KB.log:4595:Total runtime decision procedure (seconds): 342.008
result/des_1way_8KB.log:4607:Total runtime decision procedure (seconds): 343.377
result/des_1way_8KB.log:4619:Total runtime decision procedure (seconds): 344.747
result/des_1way_8KB.log:4631:Total runtime decision procedure (seconds): 346.09
result/des_1way_8KB.log:4643:Total runtime decision procedure (seconds): 347.427
result/des_1way_8KB.log:4655:Total runtime decision procedure (seconds): 348.778
result/des_1way_8KB.log:4667:Total runtime decision procedure (seconds): 350.152
result/des_1way_8KB.log:4679:Total runtime decision procedure (seconds): 351.506
result/des_1way_8KB.log:4691:Total runtime decision procedure (seconds): 352.894
result/des_1way_8KB.log:4703:Total runtime decision procedure (seconds): 354.261
result/des_1way_8KB.log:4715:Total runtime decision procedure (seconds): 355.635
result/des_1way_8KB.log:4727:Total runtime decision procedure (seconds): 356.997
result/des_1way_8KB.log:4739:Total runtime decision procedure (seconds): 358.387
result/des_1way_8KB.log:4751:Total runtime decision procedure (seconds): 359.769
result/des_1way_8KB.log:4763:Total runtime decision procedure (seconds): 361.13
result/des_1way_8KB.log:4775:Total runtime decision procedure (seconds): 362.516
result/des_1way_8KB.log:4787:Total runtime decision procedure (seconds): 363.911
result/des_1way_8KB.log:4799:Total runtime decision procedure (seconds): 365.296
result/des_1way_8KB.log:4811:Total runtime decision procedure (seconds): 366.744
result/des_1way_8KB.log:4823:Total runtime decision procedure (seconds): 368.318
result/des_1way_8KB.log:4835:Total runtime decision procedure (seconds): 369.883
result/des_1way_8KB.log:4847:Total runtime decision procedure (seconds): 371.432
result/des_1way_8KB.log:4859:Total runtime decision procedure (seconds): 373.016
result/des_1way_8KB.log:4871:Total runtime decision procedure (seconds): 374.738
result/des_1way_8KB.log:4883:Total runtime decision procedure (seconds): 376.372
result/des_1way_8KB.log:4895:Total runtime decision procedure (seconds): 377.957
result/des_1way_8KB.log:4907:Total runtime decision procedure (seconds): 379.587
result/des_1way_8KB.log:4919:Total runtime decision procedure (seconds): 381.181
result/des_1way_8KB.log:4931:Total runtime decision procedure (seconds): 382.777
result/des_1way_8KB.log:4943:Total runtime decision procedure (seconds): 384.331
result/des_1way_8KB.log:4955:Total runtime decision procedure (seconds): 385.861
result/des_1way_8KB.log:4967:Total runtime decision procedure (seconds): 387.433
result/des_1way_8KB.log:4979:Total runtime decision procedure (seconds): 388.958
result/des_1way_8KB.log:4991:Total runtime decision procedure (seconds): 390.506
result/des_1way_8KB.log:5003:Total runtime decision procedure (seconds): 392.108
result/des_1way_8KB.log:5015:Total runtime decision procedure (seconds): 393.631
result/des_1way_8KB.log:5027:Total runtime decision procedure (seconds): 395.203
result/des_1way_8KB.log:5039:Total runtime decision procedure (seconds): 396.812
result/des_1way_8KB.log:5051:Total runtime decision procedure (seconds): 398.482
result/des_1way_8KB.log:5063:Total runtime decision procedure (seconds): 400.085
result/des_1way_8KB.log:5075:Total runtime decision procedure (seconds): 401.637
result/des_1way_8KB.log:5087:Total runtime decision procedure (seconds): 403.053
result/des_1way_8KB.log:5099:Total runtime decision procedure (seconds): 404.598
result/des_1way_8KB.log:5111:Total runtime decision procedure (seconds): 406.171
result/des_1way_8KB.log:5123:Total runtime decision procedure (seconds): 407.739
result/des_1way_8KB.log:5135:Total runtime decision procedure (seconds): 409.335
result/des_1way_8KB.log:5147:Total runtime decision procedure (seconds): 410.954
result/des_1way_8KB.log:5159:Total runtime decision procedure (seconds): 412.615
result/des_1way_8KB.log:5171:Total runtime decision procedure (seconds): 414.263
result/des_1way_8KB.log:5183:Total runtime decision procedure (seconds): 415.738
result/des_1way_8KB.log:5195:Total runtime decision procedure (seconds): 417.392
result/des_1way_8KB.log:5207:Total runtime decision procedure (seconds): 419.063
result/des_1way_8KB.log:5219:Total runtime decision procedure (seconds): 420.66
result/des_1way_8KB.log:5231:Total runtime decision procedure (seconds): 422.268
result/des_1way_8KB.log:5243:Total runtime decision procedure (seconds): 423.92
result/des_1way_8KB.log:5255:Total runtime decision procedure (seconds): 425.605
result/des_1way_8KB.log:5267:Total runtime decision procedure (seconds): 427.266
result/des_1way_8KB.log:5279:Total runtime decision procedure (seconds): 428.901
result/des_1way_8KB.log:5291:Total runtime decision procedure (seconds): 430.411
result/des_1way_8KB.log:5303:Total runtime decision procedure (seconds): 431.853
result/des_1way_8KB.log:5315:Total runtime decision procedure (seconds): 433.313
result/des_1way_8KB.log:5327:Total runtime decision procedure (seconds): 434.762
result/des_1way_8KB.log:5339:Total runtime decision procedure (seconds): 436.229
result/des_1way_8KB.log:5351:Total runtime decision procedure (seconds): 437.7
result/des_1way_8KB.log:5363:Total runtime decision procedure (seconds): 439.148
result/des_1way_8KB.log:5375:Total runtime decision procedure (seconds): 440.583
result/des_1way_8KB.log:5387:Total runtime decision procedure (seconds): 442.05
result/des_1way_8KB.log:5399:Total runtime decision procedure (seconds): 443.522
result/des_1way_8KB.log:5411:Total runtime decision procedure (seconds): 445.006
result/des_1way_8KB.log:5423:Total runtime decision procedure (seconds): 446.502
result/des_1way_8KB.log:5435:Total runtime decision procedure (seconds): 448.114
result/des_1way_8KB.log:5447:Total runtime decision procedure (seconds): 449.791
result/des_1way_8KB.log:5459:Total runtime decision procedure (seconds): 451.534
result/des_1way_8KB.log:5471:Total runtime decision procedure (seconds): 453.234
result/des_1way_8KB.log:5483:Total runtime decision procedure (seconds): 455.067
result/des_1way_8KB.log:5495:Total runtime decision procedure (seconds): 456.882
result/des_1way_8KB.log:5507:Total runtime decision procedure (seconds): 458.548
